{
  "consumer": {
    "name": "web"
  },
  "provider": {
    "name": "bff-graphql"
  },
  "interactions": [
    {
      "description": "request for posts",
      "providerState": "there are posts",
      "request": {
        "method": "POST",
        "path": "/graphql",
        "headers": {
          "Content-Type": "application/json"
        },
        "body": {
          "query": "\n    query($page: Int, $category: String) {\n      notifications {\n        friendshipRequests {\n          slug\n          name\n        }\n      }\n      latestTweets {\n        content\n      }\n      posts(page: $page, category: $category) {\n        currentPage\n        lastPage\n        data {\n          slug\n          title\n          content\n          publishedAt\n          url\n          author {\n            username\n          }\n          comments {\n            createdAt\n            name\n            site\n            message\n          }\n          relatedBooks {\n            title\n            link\n          }\n          relatedPosts {\n            title\n            url\n          }\n          album {\n            title\n            photos {\n              thumbnail\n              image\n              title\n              description\n            }\n          }\n        }\n      }\n      popularPosts {\n        title\n        url\n      }\n    }\n  ",
          "variables": {
            "page": 1,
            "category": null
          }
        }
      },
      "response": {
        "status": 200,
        "headers": {
          "Content-Type": "application/json"
        },
        "body": {
          "data": {
            "notifications": {
              "friendshipRequests": [
                {
                  "slug": "walter-isaacson",
                  "name": "Walter Isaacson"
                }
              ]
            },
            "latestTweets": [
              {
                "content": "Melhor notícia: último livro da tetralogia de Elena Ferrante chega às livrarias no fim do mês http://bit.ly/2oQv47D  #ferrantefever"
              },
              {
                "content": "10 fotos (maravilhosas) de Marilyn Monroe perdida nos livros: http://bit.ly/2g7KejE "
              }
            ],
            "posts": {
              "currentPage": 1,
              "lastPage": 10,
              "data": [
                {
                  "slug": "this-is-my-first-post",
                  "title": "This is my first post",
                  "category": "Acontece",
                  "categorySlug": "acontece",
                  "content": "<p>Content of my first post. This accept html. This will contain all data!</p>",
                  "publishedAt": "1502064376",
                  "url": "/blog/livros/acontece/this-is-my-first-post",
                  "author": {
                    "username": "gabriela"
                  },
                  "comments": [
                    {
                      "name": "Ada Lovelace",
                      "site": "https://en.wikipedia.org/wiki/Ada_Lovelace",
                      "message": "Really liked this post :)",
                      "createdAt": "1502928741"
                    },
                    {
                      "name": "Alan Turing",
                      "site": "https://en.wikipedia.org/wiki/Alan_Turing",
                      "message": "I agree. This is good!",
                      "createdAt": "1502928749"
                    }
                  ],
                  "relatedBooks": [
                    {
                      "title": "The Innovators",
                      "link": "https://www.shereland.com/livros/os-inovadores"
                    },
                    {
                      "title": "Steve Jobs",
                      "link": "https://www.shereland.com/livros/steve-jobs"
                    }
                  ],
                  "relatedPosts": [
                    {
                      "title": "10 dicas para reciclar seus livros velhos",
                      "link": "https://www.shereland.com/blog/livros/rodape/dicas-reciclar-livros-velhos"
                    },
                    {
                      "title": "Novidade: o que é que o Kindle Oasis tem de bom?",
                      "link": "https://www.shereland.com/blog/livros/acontece/o-que-kindle-oasis-tem-de-bom"
                    }
                  ],
                  "album": {
                    "title": "Fundos de tela de livros famosos",
                    "photos": [
                      {
                        "thumbnail": "https://d269syrwt0zgsa.cloudfront.net/media/cache/09/6c/096cbf6d45d09e4486a7589b54ceaef8.jpg",
                        "image": "https://d269syrwt0zgsa.cloudfront.net/media/album-photos/harry-potter-wallpaper-hogwarts-place.jpg",
                        "title": "Castelo de Hogwarts",
                        "description": "Castelo de Hogwarts com boa foto: http://pichost.me/1655031/"
                      },
                      {
                        "thumbnail": "https://d269syrwt0zgsa.cloudfront.net/media/cache/0d/dc/0ddcdffeaf09fb222384dd9754902a6d.jpg",
                        "image": "https://d269syrwt0zgsa.cloudfront.net/media/album-photos/the-lord-of-the-rings-gate-of-argonath.jpg",
                        "title": "Portão de Agornath",
                        "description": "Ainda no primeiro filme, mas com esse belo portão: http://www.desktopwallpapers4.me/movies/gate-of-argonath-lord-of-the-rings-13245/"
                      }
                    ]
                  }
                },
                {
                  "slug": "this-is-my-second-post",
                  "title": "This is my second post",
                  "category": "Acontece",
                  "categorySlug": "acontece",
                  "content": "<p>I am writing another nice post. This will content only the required fields!</p>",
                  "publishedAt": "1502064676",
                  "url": "/blog/livros/a-gente-le/this-is-my-second-post",
                  "author": {
                    "username": "gabriela"
                  },
                  "relatedBooks": [

                  ],
                  "relatedPosts": [

                  ],
                  "album": {
                    "title": null,
                    "photos": [

                    ]
                  }
                },
                {
                  "slug": "this-is-my-third-post",
                  "title": "This is my third post",
                  "category": "Acontece",
                  "categorySlug": "acontece",
                  "content": "<p>I am writing another nice post. This will content only the required fields!</p>",
                  "publishedAt": "1502064676",
                  "url": "/blog/livros/rodape/this-is-my-third-post",
                  "author": {
                    "username": "gabriela"
                  },
                  "relatedBooks": [

                  ],
                  "relatedPosts": [

                  ],
                  "album": {
                    "title": null,
                    "photos": [

                    ]
                  }
                },
                {
                  "slug": "this-is-my-fourth-post",
                  "title": "This is my fourth post",
                  "category": "Acontece",
                  "categorySlug": "acontece",
                  "content": "<p>I am writing another nice post. This will content only the required fields!</p>",
                  "publishedAt": "1502064676",
                  "url": "/blog/livros/acontece/this-is-my-third-post",
                  "author": {
                    "username": "gabriela"
                  },
                  "relatedBooks": [

                  ],
                  "relatedPosts": [

                  ],
                  "album": {
                    "title": null,
                    "photos": [

                    ]
                  }
                }
              ]
            },
            "popularPosts": [
              {
                "title": "Conheça a linda história entre Carlos Drummond de Andrade e a filha, Maria Julieta",
                "url": "https://www.shereland.com/blog/livros/acontece/drummond-e-maria-julieta"
              },
              {
                "title": "Por que a tetralogia de Elena Ferrante é irresistível?",
                "url": "https://www.shereland.com/blog/livros/a-gente-le/resenha-elena-ferrante"
              },
              {
                "title": "Frases e versos de Matilde Campilho em Jóquei",
                "url": "https://www.shereland.com/blog/livros/rodape/frases-e-versos-de-matilde-campilho"
              },
              {
                "title": "Melhores citações de Chimamanda em Sejamos Todos Feministas + baixe o e-book gratuitamente",
                "url": "https://www.shereland.com/blog/livros/acontece/citacoes-de-chimamanda-em-sejamos-todos-feministas"
              },
              {
                "title": "A gente lê: Antologia da Literatura Fantástica",
                "url": "https://www.shereland.com/blog/livros/a-gente-le/antologia-da-literatura-fantastica"
              }
            ]
          }
        }
      }
    },
    {
      "description": "request for posts on page 2",
      "providerState": "there are posts",
      "request": {
        "method": "POST",
        "path": "/graphql",
        "headers": {
          "Content-Type": "application/json"
        },
        "body": {
          "query": "\n    query($page: Int, $category: String) {\n      notifications {\n        friendshipRequests {\n          slug\n          name\n        }\n      }\n      latestTweets {\n        content\n      }\n      posts(page: $page, category: $category) {\n        currentPage\n        lastPage\n        data {\n          slug\n          title\n          content\n          publishedAt\n          url\n          author {\n            username\n          }\n          comments {\n            createdAt\n            name\n            site\n            message\n          }\n          relatedBooks {\n            title\n            link\n          }\n          relatedPosts {\n            title\n            url\n          }\n          album {\n            title\n            photos {\n              thumbnail\n              image\n              title\n              description\n            }\n          }\n        }\n      }\n      popularPosts {\n        title\n        url\n      }\n    }\n  ",
          "variables": {
            "page": 2,
            "category": null
          }
        }
      },
      "response": {
        "status": 200,
        "headers": {
          "Content-Type": "application/json"
        },
        "body": {
          "data": {
            "notifications": {
              "friendshipRequests": [
                {
                  "slug": "walter-isaacson",
                  "name": "Walter Isaacson"
                }
              ]
            },
            "latestTweets": [
              {
                "content": "Melhor notícia: último livro da tetralogia de Elena Ferrante chega às livrarias no fim do mês http://bit.ly/2oQv47D  #ferrantefever"
              },
              {
                "content": "10 fotos (maravilhosas) de Marilyn Monroe perdida nos livros: http://bit.ly/2g7KejE "
              }
            ],
            "posts": {
              "currentPage": 1,
              "lastPage": 10,
              "data": [
                {
                  "slug": "this-is-my-fifth-post",
                  "title": "This is my fifth post",
                  "category": "Acontece",
                  "categorySlug": "acontece",
                  "content": "<p>I am writing another nice post. This will content only the required fields!</p>",
                  "publishedAt": "1502064676",
                  "url": "/blog/livros/a-gente-le/this-is-my-fifth-post",
                  "author": {
                    "username": "gabriela"
                  },
                  "relatedBooks": [

                  ],
                  "relatedPosts": [

                  ],
                  "album": {
                    "title": null,
                    "photos": [

                    ]
                  }
                },
                {
                  "slug": "this-is-my-sixth-post",
                  "title": "This is my sixth post",
                  "category": "Acontece",
                  "categorySlug": "acontece",
                  "content": "<p>I am writing another nice post. This will content only the required fields!</p>",
                  "publishedAt": "1502064676",
                  "url": "/blog/livros/rodape/this-is-my-sixth-post",
                  "author": {
                    "username": "gabriela"
                  },
                  "relatedBooks": [

                  ],
                  "relatedPosts": [

                  ],
                  "album": {
                    "title": null,
                    "photos": [

                    ]
                  }
                },
                {
                  "slug": "this-is-my-seventh-post",
                  "title": "This is my seventh post",
                  "category": "Acontece",
                  "categorySlug": "acontece",
                  "content": "<p>I am writing another nice post. This will content only the required fields!</p>",
                  "publishedAt": "1502064676",
                  "url": "/blog/livros/acontece/this-is-my-third-post",
                  "author": {
                    "username": "gabriela"
                  },
                  "relatedBooks": [

                  ],
                  "relatedPosts": [

                  ],
                  "album": {
                    "title": null,
                    "photos": [

                    ]
                  }
                },
                {
                  "slug": "this-is-my-eighth-post",
                  "title": "This is my eighth post",
                  "category": "Acontece",
                  "categorySlug": "acontece",
                  "content": "<p>I am writing another nice post. This will content only the required fields!</p>",
                  "publishedAt": "1502064676",
                  "url": "/blog/livros/acontece/this-is-my-third-post",
                  "author": {
                    "username": "gabriela"
                  },
                  "relatedBooks": [

                  ],
                  "relatedPosts": [

                  ],
                  "album": {
                    "title": null,
                    "photos": [

                    ]
                  }
                }
              ]
            },
            "popularPosts": [
              {
                "title": "Conheça a linda história entre Carlos Drummond de Andrade e a filha, Maria Julieta",
                "url": "https://www.shereland.com/blog/livros/acontece/drummond-e-maria-julieta"
              },
              {
                "title": "Por que a tetralogia de Elena Ferrante é irresistível?",
                "url": "https://www.shereland.com/blog/livros/a-gente-le/resenha-elena-ferrante"
              },
              {
                "title": "Frases e versos de Matilde Campilho em Jóquei",
                "url": "https://www.shereland.com/blog/livros/rodape/frases-e-versos-de-matilde-campilho"
              },
              {
                "title": "Melhores citações de Chimamanda em Sejamos Todos Feministas + baixe o e-book gratuitamente",
                "url": "https://www.shereland.com/blog/livros/acontece/citacoes-de-chimamanda-em-sejamos-todos-feministas"
              },
              {
                "title": "A gente lê: Antologia da Literatura Fantástica",
                "url": "https://www.shereland.com/blog/livros/a-gente-le/antologia-da-literatura-fantastica"
              }
            ]
          }
        }
      }
    },
    {
      "description": "request for category posts",
      "providerState": "there are posts",
      "request": {
        "method": "POST",
        "path": "/graphql",
        "headers": {
          "Content-Type": "application/json"
        },
        "body": {
          "query": "\n    query($page: Int, $category: String) {\n      notifications {\n        friendshipRequests {\n          slug\n          name\n        }\n      }\n      latestTweets {\n        content\n      }\n      posts(page: $page, category: $category) {\n        currentPage\n        lastPage\n        data {\n          slug\n          title\n          content\n          publishedAt\n          url\n          author {\n            username\n          }\n          comments {\n            createdAt\n            name\n            site\n            message\n          }\n          relatedBooks {\n            title\n            link\n          }\n          relatedPosts {\n            title\n            url\n          }\n          album {\n            title\n            photos {\n              thumbnail\n              image\n              title\n              description\n            }\n          }\n        }\n      }\n      popularPosts {\n        title\n        url\n      }\n    }\n  ",
          "variables": {
            "category": "acontece",
            "page": 1
          }
        }
      },
      "response": {
        "status": 200,
        "headers": {
          "Content-Type": "application/json"
        },
        "body": {
          "data": {
            "notifications": {
              "friendshipRequests": [
                {
                  "slug": "walter-isaacson",
                  "name": "Walter Isaacson"
                }
              ]
            },
            "latestTweets": [
              {
                "content": "Melhor notícia: último livro da tetralogia de Elena Ferrante chega às livrarias no fim do mês http://bit.ly/2oQv47D  #ferrantefever"
              },
              {
                "content": "10 fotos (maravilhosas) de Marilyn Monroe perdida nos livros: http://bit.ly/2g7KejE "
              }
            ],
            "posts": {
              "currentPage": 1,
              "lastPage": 10,
              "data": [
                {
                  "slug": "this-is-my-first-post",
                  "title": "This is my first post",
                  "category": "Acontece",
                  "categorySlug": "acontece",
                  "content": "<p>Content of my first post. This accept html. This will contain all data!</p>",
                  "publishedAt": "1502064376",
                  "url": "/blog/livros/acontece/this-is-my-first-post",
                  "author": {
                    "username": "gabriela"
                  },
                  "comments": [
                    {
                      "name": "Ada Lovelace",
                      "site": "https://en.wikipedia.org/wiki/Ada_Lovelace",
                      "message": "Really liked this post :)",
                      "createdAt": "1502928741"
                    },
                    {
                      "name": "Alan Turing",
                      "site": "https://en.wikipedia.org/wiki/Alan_Turing",
                      "message": "I agree. This is good!",
                      "createdAt": "1502928749"
                    }
                  ],
                  "relatedBooks": [
                    {
                      "title": "The Innovators",
                      "link": "https://www.shereland.com/livros/os-inovadores"
                    },
                    {
                      "title": "Steve Jobs",
                      "link": "https://www.shereland.com/livros/steve-jobs"
                    }
                  ],
                  "relatedPosts": [
                    {
                      "title": "10 dicas para reciclar seus livros velhos",
                      "link": "https://www.shereland.com/blog/livros/rodape/dicas-reciclar-livros-velhos"
                    },
                    {
                      "title": "Novidade: o que é que o Kindle Oasis tem de bom?",
                      "link": "https://www.shereland.com/blog/livros/acontece/o-que-kindle-oasis-tem-de-bom"
                    }
                  ],
                  "album": {
                    "title": "Fundos de tela de livros famosos",
                    "photos": [
                      {
                        "thumbnail": "https://d269syrwt0zgsa.cloudfront.net/media/cache/09/6c/096cbf6d45d09e4486a7589b54ceaef8.jpg",
                        "image": "https://d269syrwt0zgsa.cloudfront.net/media/album-photos/harry-potter-wallpaper-hogwarts-place.jpg",
                        "title": "Castelo de Hogwarts",
                        "description": "Castelo de Hogwarts com boa foto: http://pichost.me/1655031/"
                      },
                      {
                        "thumbnail": "https://d269syrwt0zgsa.cloudfront.net/media/cache/0d/dc/0ddcdffeaf09fb222384dd9754902a6d.jpg",
                        "image": "https://d269syrwt0zgsa.cloudfront.net/media/album-photos/the-lord-of-the-rings-gate-of-argonath.jpg",
                        "title": "Portão de Agornath",
                        "description": "Ainda no primeiro filme, mas com esse belo portão: http://www.desktopwallpapers4.me/movies/gate-of-argonath-lord-of-the-rings-13245/"
                      }
                    ]
                  }
                },
                {
                  "slug": "this-is-my-second-post",
                  "title": "This is my second post",
                  "category": "Acontece",
                  "categorySlug": "acontece",
                  "content": "<p>I am writing another nice post. This will content only the required fields!</p>",
                  "publishedAt": "1502064676",
                  "url": "/blog/livros/a-gente-le/this-is-my-second-post",
                  "author": {
                    "username": "gabriela"
                  },
                  "relatedBooks": [

                  ],
                  "relatedPosts": [

                  ],
                  "album": {
                    "title": null,
                    "photos": [

                    ]
                  }
                },
                {
                  "slug": "this-is-my-third-post",
                  "title": "This is my third post",
                  "category": "Acontece",
                  "categorySlug": "acontece",
                  "content": "<p>I am writing another nice post. This will content only the required fields!</p>",
                  "publishedAt": "1502064676",
                  "url": "/blog/livros/rodape/this-is-my-third-post",
                  "author": {
                    "username": "gabriela"
                  },
                  "relatedBooks": [

                  ],
                  "relatedPosts": [

                  ],
                  "album": {
                    "title": null,
                    "photos": [

                    ]
                  }
                },
                {
                  "slug": "this-is-my-fourth-post",
                  "title": "This is my fourth post",
                  "category": "Acontece",
                  "categorySlug": "acontece",
                  "content": "<p>I am writing another nice post. This will content only the required fields!</p>",
                  "publishedAt": "1502064676",
                  "url": "/blog/livros/acontece/this-is-my-third-post",
                  "author": {
                    "username": "gabriela"
                  },
                  "relatedBooks": [

                  ],
                  "relatedPosts": [

                  ],
                  "album": {
                    "title": null,
                    "photos": [

                    ]
                  }
                }
              ]
            },
            "popularPosts": [
              {
                "title": "Conheça a linda história entre Carlos Drummond de Andrade e a filha, Maria Julieta",
                "url": "https://www.shereland.com/blog/livros/acontece/drummond-e-maria-julieta"
              },
              {
                "title": "Por que a tetralogia de Elena Ferrante é irresistível?",
                "url": "https://www.shereland.com/blog/livros/a-gente-le/resenha-elena-ferrante"
              },
              {
                "title": "Frases e versos de Matilde Campilho em Jóquei",
                "url": "https://www.shereland.com/blog/livros/rodape/frases-e-versos-de-matilde-campilho"
              },
              {
                "title": "Melhores citações de Chimamanda em Sejamos Todos Feministas + baixe o e-book gratuitamente",
                "url": "https://www.shereland.com/blog/livros/acontece/citacoes-de-chimamanda-em-sejamos-todos-feministas"
              },
              {
                "title": "A gente lê: Antologia da Literatura Fantástica",
                "url": "https://www.shereland.com/blog/livros/a-gente-le/antologia-da-literatura-fantastica"
              }
            ]
          }
        }
      }
    },
    {
      "description": "request for single post page",
      "providerState": "there are posts",
      "request": {
        "method": "POST",
        "path": "/graphql",
        "headers": {
          "Content-Type": "application/json"
        },
        "body": {
          "query": "\n    query($post: String!) {\n      notifications {\n        friendshipRequests {\n          slug\n          name\n        }\n      }\n      latestTweets {\n        content\n      }\n      post(slug: $post) {\n        slug\n        title\n        content\n        category\n        categorySlug\n        publishedAt\n        url\n        author {\n          username\n        }\n        comments {\n          createdAt\n          name\n          site\n          message\n        }\n        relatedBooks {\n          title\n          link\n        }\n        relatedPosts {\n          title\n          url\n        }\n        album {\n          title\n          photos {\n            thumbnail\n            image\n            title\n            description\n          }\n        }\n      }\n      popularPosts {\n        title\n        url\n      }\n    }\n  ",
          "variables": {
            "post": "this-is-my-first-post"
          }
        }
      },
      "response": {
        "status": 200,
        "headers": {
          "Content-Type": "application/json"
        },
        "body": {
          "data": {
            "notifications": {
              "friendshipRequests": [
                {
                  "slug": "walter-isaacson",
                  "name": "Walter Isaacson"
                }
              ]
            },
            "latestTweets": [
              {
                "content": "Melhor notícia: último livro da tetralogia de Elena Ferrante chega às livrarias no fim do mês http://bit.ly/2oQv47D  #ferrantefever"
              },
              {
                "content": "10 fotos (maravilhosas) de Marilyn Monroe perdida nos livros: http://bit.ly/2g7KejE "
              }
            ],
            "post": {
              "slug": "this-is-my-first-post",
              "title": "This is my first post",
              "category": "Acontece",
              "categorySlug": "acontece",
              "content": "<p>Content of my first post. This accept html. This will contain all data!</p>",
              "publishedAt": "1502064376",
              "url": "/blog/livros/acontece/this-is-my-first-post",
              "author": {
                "username": "gabriela"
              },
              "comments": [
                {
                  "name": "Ada Lovelace",
                  "site": "https://en.wikipedia.org/wiki/Ada_Lovelace",
                  "message": "Really liked this post :)",
                  "createdAt": "1502928741"
                },
                {
                  "name": "Alan Turing",
                  "site": "https://en.wikipedia.org/wiki/Alan_Turing",
                  "message": "I agree. This is good!",
                  "createdAt": "1502928749"
                }
              ],
              "relatedBooks": [
                {
                  "title": "The Innovators",
                  "link": "https://www.shereland.com/livros/os-inovadores"
                },
                {
                  "title": "Steve Jobs",
                  "link": "https://www.shereland.com/livros/steve-jobs"
                }
              ],
              "relatedPosts": [
                {
                  "title": "10 dicas para reciclar seus livros velhos",
                  "link": "https://www.shereland.com/blog/livros/rodape/dicas-reciclar-livros-velhos"
                },
                {
                  "title": "Novidade: o que é que o Kindle Oasis tem de bom?",
                  "link": "https://www.shereland.com/blog/livros/acontece/o-que-kindle-oasis-tem-de-bom"
                }
              ],
              "album": {
                "title": "Fundos de tela de livros famosos",
                "photos": [
                  {
                    "thumbnail": "https://d269syrwt0zgsa.cloudfront.net/media/cache/09/6c/096cbf6d45d09e4486a7589b54ceaef8.jpg",
                    "image": "https://d269syrwt0zgsa.cloudfront.net/media/album-photos/harry-potter-wallpaper-hogwarts-place.jpg",
                    "title": "Castelo de Hogwarts",
                    "description": "Castelo de Hogwarts com boa foto: http://pichost.me/1655031/"
                  },
                  {
                    "thumbnail": "https://d269syrwt0zgsa.cloudfront.net/media/cache/0d/dc/0ddcdffeaf09fb222384dd9754902a6d.jpg",
                    "image": "https://d269syrwt0zgsa.cloudfront.net/media/album-photos/the-lord-of-the-rings-gate-of-argonath.jpg",
                    "title": "Portão de Agornath",
                    "description": "Ainda no primeiro filme, mas com esse belo portão: http://www.desktopwallpapers4.me/movies/gate-of-argonath-lord-of-the-rings-13245/"
                  }
                ]
              }
            },
            "popularPosts": [
              {
                "title": "Conheça a linda história entre Carlos Drummond de Andrade e a filha, Maria Julieta",
                "url": "https://www.shereland.com/blog/livros/acontece/drummond-e-maria-julieta"
              },
              {
                "title": "Por que a tetralogia de Elena Ferrante é irresistível?",
                "url": "https://www.shereland.com/blog/livros/a-gente-le/resenha-elena-ferrante"
              },
              {
                "title": "Frases e versos de Matilde Campilho em Jóquei",
                "url": "https://www.shereland.com/blog/livros/rodape/frases-e-versos-de-matilde-campilho"
              },
              {
                "title": "Melhores citações de Chimamanda em Sejamos Todos Feministas + baixe o e-book gratuitamente",
                "url": "https://www.shereland.com/blog/livros/acontece/citacoes-de-chimamanda-em-sejamos-todos-feministas"
              },
              {
                "title": "A gente lê: Antologia da Literatura Fantástica",
                "url": "https://www.shereland.com/blog/livros/a-gente-le/antologia-da-literatura-fantastica"
              }
            ]
          }
        }
      }
    },
    {
      "description": "request for 404 post page",
      "providerState": "there are no posts",
      "request": {
        "method": "POST",
        "path": "/graphql",
        "headers": {
          "Content-Type": "application/json"
        },
        "body": {
          "query": "\n    query($post: String!) {\n      notifications {\n        friendshipRequests {\n          slug\n          name\n        }\n      }\n      latestTweets {\n        content\n      }\n      post(slug: $post) {\n        slug\n        title\n        content\n        category\n        categorySlug\n        publishedAt\n        url\n        author {\n          username\n        }\n        comments {\n          createdAt\n          name\n          site\n          message\n        }\n        relatedBooks {\n          title\n          link\n        }\n        relatedPosts {\n          title\n          url\n        }\n        album {\n          title\n          photos {\n            thumbnail\n            image\n            title\n            description\n          }\n        }\n      }\n      popularPosts {\n        title\n        url\n      }\n    }\n  ",
          "variables": {
            "post": "404-post"
          }
        }
      },
      "response": {
        "status": 200,
        "headers": {
          "Content-Type": "application/json"
        },
        "body": {
          "data": {
            "notifications": {
              "friendshipRequests": [
                {
                  "slug": "walter-isaacson",
                  "name": "Walter Isaacson"
                }
              ]
            },
            "latestTweets": [
              {
                "content": "Melhor notícia: último livro da tetralogia de Elena Ferrante chega às livrarias no fim do mês http://bit.ly/2oQv47D  #ferrantefever"
              },
              {
                "content": "10 fotos (maravilhosas) de Marilyn Monroe perdida nos livros: http://bit.ly/2g7KejE "
              }
            ],
            "post": null,
            "popularPosts": [
              {
                "title": "Conheça a linda história entre Carlos Drummond de Andrade e a filha, Maria Julieta",
                "url": "https://www.shereland.com/blog/livros/acontece/drummond-e-maria-julieta"
              },
              {
                "title": "Por que a tetralogia de Elena Ferrante é irresistível?",
                "url": "https://www.shereland.com/blog/livros/a-gente-le/resenha-elena-ferrante"
              },
              {
                "title": "Frases e versos de Matilde Campilho em Jóquei",
                "url": "https://www.shereland.com/blog/livros/rodape/frases-e-versos-de-matilde-campilho"
              },
              {
                "title": "Melhores citações de Chimamanda em Sejamos Todos Feministas + baixe o e-book gratuitamente",
                "url": "https://www.shereland.com/blog/livros/acontece/citacoes-de-chimamanda-em-sejamos-todos-feministas"
              },
              {
                "title": "A gente lê: Antologia da Literatura Fantástica",
                "url": "https://www.shereland.com/blog/livros/a-gente-le/antologia-da-literatura-fantastica"
              }
            ]
          }
        }
      }
    }
  ],
  "metadata": {
    "pactSpecification": {
      "version": "2.0.0"
    }
  }
}